src/tb.vcd
$date
	Mon Dec 25 16:08:02 2023
$end
$version
	Icarus Verilog
$end
$timescale
	1ps
$end
$scope module tt_um_FanCTRL_tb $end
$var wire 8 ! uio_in [7:0] $end
$var wire 8 " uio_oe [7:0] $end
$var wire 8 # uo_out [7:0] $end
$var wire 8 $ uio_out [7:0] $end
$var wire 8 % ui_in [7:0] $end
$var wire 4 & SET_VAL_sim [3:0] $end
$var wire 5 ' PID_Val_tb [4:0] $end
$var wire 4 ( ADC_VAL_sim [3:0] $end
$var wire 4 ) ADC_PT2_sim [3:0] $end
$var real 1 * A0_PT2 $end
$var real 1 + A1_PT2 $end
$var parameter 32 , ADC_BITWIDTH $end
$var real 1 - B0_PT2 $end
$var real 1 . B1_PT2 $end
$var real 1 / B2_PT2 $end
$var parameter 32 0 CLK_DIV_PID $end
$var real 1 1 CLK_EN_FREQ $end
$var parameter 32 2 PID_COUNTER_BITWIDTH $end
$var parameter 32 3 PID_STAGES $end
$var parameter 33 4 PT2_CLK_DIV $end
$var parameter 32 5 PT2_FREQ $end
$var reg 4 6 ADC_TEST_sim [3:0] $end
$var reg 1 7 PT2_enable $end
$var reg 4 8 SET_PT2_sim [3:0] $end
$var reg 4 9 SET_TEST_sim [3:0] $end
$var reg 18 : clkCounterValue [17:0] $end
$var reg 1 ; clk_tb $end
$var reg 1 < rstn_tb $end
$scope function log2 $end
$var reg 32 = value [31:0] $end
$var integer 32 > i [31:0] $end
$upscope $end
$scope module tt_um_FAN $end
$var wire 1 ? PWM_pin $end
$var wire 1 ; clk $end
$var wire 1 @ ena $end
$var wire 1 < rst_n $end
$var wire 8 A ui_in [7:0] $end
$var wire 8 B uio_in [7:0] $end
$var wire 8 C uio_oe [7:0] $end
$var wire 8 D uo_out [7:0] $end
$var wire 8 E uio_out [7:0] $end
$var wire 4 F sevenSegVal [3:0] $end
$var wire 7 G led_out [6:0] $end
$var wire 5 H PID_Val [4:0] $end
$var parameter 32 I ADC_BITWIDTH $end
$var parameter 32 J FRAC_BITWIDTH $end
$var parameter 8 K PID_a0 $end
$var parameter 8 L PID_a1 $end
$var parameter 8 M PID_b0 $end
$var parameter 8 N PID_b1 $end
$var parameter 8 O PID_b2 $end
$var parameter 4 P PWM_MIN_FAN_SPEED $end
$var parameter 5 Q PWM_PERIOD_COUNTER $end
$var parameter 32 R REG_BITWIDTH $end
$scope module DECODER $end
$var wire 4 S counter [3:0] $end
$var reg 7 T segments [6:0] $end
$upscope $end
$scope module FAN $end
$var wire 4 U ADC_value_i [3:0] $end
$var wire 5 V PID_Val_o [4:0] $end
$var wire 4 W PWM_minCounterValue_i [3:0] $end
$var wire 5 X PWM_periodCounterValue_i [4:0] $end
$var wire 1 ? PWM_pin_o $end
$var wire 4 Y SET_value_i [3:0] $end
$var wire 8 Z a0_i [7:0] $end
$var wire 8 [ a1_i [7:0] $end
$var wire 8 \ b0_i [7:0] $end
$var wire 8 ] b1_i [7:0] $end
$var wire 8 ^ b2_i [7:0] $end
$var wire 1 ; clk_en_i $end
$var wire 1 ; clk_i $end
$var wire 1 < rstn_i $end
$var wire 1 _ clk_en_PID $end
$var wire 5 ` PID_Val [4:0] $end
$var parameter 32 a ADC_BITWIDTH $end
$var parameter 32 b CLK_DIV_MULTIPLIER $end
$var real 1 c CLK_EN_FREQ $end
$var parameter 32 d FRAC_BITWIDTH $end
$var parameter 32 e MIN_MUL_TICKS $end
$var parameter 33 f PID_CLK_DIV $end
$var parameter 32 g PID_COUNTER_BITWIDTH $end
$var parameter 32 h PID_FREQ $end
$var parameter 32 i PID_STAGES $end
$var parameter 33 j REG_BITWIDTH $end
$var reg 16 k PID_clk_div_counterValue [15:0] $end
$scope function log2 $end
$var reg 32 l value [31:0] $end
$var integer 32 m i [31:0] $end
$upscope $end
$scope module PID $end
$var wire 4 n ADC_value_i [3:0] $end
$var wire 4 o SET_value_i [3:0] $end
$var wire 8 p a0_reg_i [7:0] $end
$var wire 8 q a1_reg_i [7:0] $end
$var wire 8 r b0_reg_i [7:0] $end
$var wire 8 s b1_reg_i [7:0] $end
$var wire 8 t b2_reg_i [7:0] $end
$var wire 1 _ clk_en_PID_i $end
$var wire 1 ; clk_i $end
$var wire 5 u out_Val_o [4:0] $end
$var wire 1 < rstn_i $end
$var wire 13 v frac_SET_Val [12:0] $end
$var wire 13 w frac_ADC_Val [12:0] $end
$var wire 26 x error_Val_scaled_m2 [25:0] $end
$var wire 26 y error_Val_scaled_m1 [25:0] $end
$var wire 26 z error_Val_scaled_m0 [25:0] $end
$var wire 13 { error_Val [12:0] $end
$var wire 26 | b2_coeff [25:0] $end
$var wire 26 } b1_coeff [25:0] $end
$var wire 26 ~ b0_coeff [25:0] $end
$var wire 26 !" a1_coeff [25:0] $end
$var wire 26 "" a0_coeff [25:0] $end
$var wire 13 #" SET_Val [12:0] $end
$var wire 26 $" MUL_out [25:0] $end
$var wire 26 %" MUL_b [25:0] $end
$var wire 26 &" MUL_a [25:0] $end
$var wire 1 '" MUL_Done_STRB $end
$var wire 13 (" ADC_Val [12:0] $end
$var parameter 32 )" ADC_BITWIDTH $end
$var parameter 32 *" ADDITIONAL_RESULT_BITS $end
$var parameter 32 +" CLK_DIV_MULTIPLIER $end
$var parameter 32 ," FRAC_BITWIDTH $end
$var parameter 26 -" MAX_OUT_VALUE $end
$var parameter 26 ." MAX_PID_VALUE $end
$var parameter 66 /" MAX_VAL_BITWIDTH $end
$var parameter 26 0" MIN_OUT_VALUE $end
$var parameter 26 1" MIN_PID_VALUE $end
$var parameter 35 2" MULTIPLIER_BITWIDTH $end
$var parameter 32 3" PID_STAGES_BITWIDTH $end
$var parameter 33 4" REG_BITWIDTH $end
$var parameter 67 5" RESULT_BITWIDTH $end
$var reg 1 6" MUL_Start_STRB $end
$var reg 1 7" MulResult_Flag $end
$var reg 5 8" out_Val [4:0] $end
$var reg 3 9" pipeStage [2:0] $end
$var reg 26 :" result_Val [25:0] $end
$scope function get_Multiplier $end
$var reg 26 ;" Multiplier_1 [25:0] $end
$var reg 26 <" Multiplier_2 [25:0] $end
$var reg 26 =" Multiplier_3 [25:0] $end
$var reg 26 >" Multiplier_4 [25:0] $end
$var reg 26 ?" Multiplier_5 [25:0] $end
$var reg 3 @" x [2:0] $end
$upscope $end
$scope module MUL $end
$var wire 1 6" MUL_Start_STRB_i $end
$var wire 26 A" a_i [25:0] $end
$var wire 26 B" b_i [25:0] $end
$var wire 1 ; clk_i $end
$var wire 26 C" out_o [25:0] $end
$var wire 1 < rstn_i $end
$var wire 1 '" MUL_Done_STRB_o $end
$var parameter 32 D" CLK_DIV_MULTIPLIER $end
$var parameter 32 E" CLK_DIV_MULTIPLIER_BITWIDTH $end
$var parameter 32 F" COUNTER_BITWIDTH $end
$var parameter 35 G" N $end
$var reg 1 H" MUL_Done_STRB_reg $end
$var reg 5 I" MulCounter [4:0] $end
$var reg 26 J" a_in_reg [25:0] $end
$var reg 26 K" b_in_reg [25:0] $end
$var reg 10 L" clkCounterValue [9:0] $end
$var reg 26 M" out_reg [25:0] $end
$scope function log2 $end
$var reg 32 N" value [31:0] $end
$var integer 32 O" i [31:0] $end
$upscope $end
$upscope $end
$upscope $end
$upscope $end
$upscope $end
$upscope $end
$enddefinitions $end
$comment Show the parameter values. $end
$dumpall
b1101 G"
b101 F"
b1010 E"
b1011001010 D"
b11010 5"
b1000 4"
b11 3"
b1101 2"
b11111111000000000000000001 1"
b11111111111111111111110001 0"
b10001 /"
b111111111111111111 ."
b1111 -"
b110 ,"
b1011001010 +"
b1 *"
b100 )"
b1000 j
b101 i
b101 h
b10000 g
b1001110000111111 f
b11110 e
b110 d
r1000000 c
b1011001010 b
b100 a
b10 R
b10010 Q
b11 P
b1011110 O
b0 N
b10100011 M
b0 L
b11000000 K
b110 J
b100 I
b101 5
b110000110100111111 4
b101 3
b10010 2
r1000000 1
b10 0
r0.001062704222349921 /
r0.002125408444699843 .
r0.001062704222349921 -
b100 ,
r-1.859112080180374 +
r0.8599622435582536 *
$end
#0
$dumpvars
bx O"
bx N"
bx M"
bx L"
bx K"
bx J"
bx I"
xH"
bx C"
b0 B"
b0 A"
bx @"
b0 ?"
b1000000 >"
b1011110 ="
b0 <"
b11111111111111111110100011 ;"
bx :"
bx 9"
bx 8"
x7"
x6"
b111 ("
x'"
b0 &"
b0 %"
bx $"
b101 #"
b11111111111111111111000000 ""
b0 !"
b11111111111111111110100011 ~
b0 }
b1011110 |
b1111110000000 {
bx z
bx y
bx x
b111000000 w
b101000000 v
bx u
b1011110 t
b0 s
b10100011 r
b0 q
b11000000 p
b101 o
b111 n
bx m
bx l
bx k
bx `
x_
b1011110 ^
b0 ]
b10100011 \
b0 [
b11000000 Z
b101 Y
b10010 X
b11 W
bx V
b111 U
bx T
bx S
bx H
bx G
bx F
b0xxxxx E
b0xxxxxxx D
b11111111 C
bz B
b1010111 A
1@
0?
bx >
bx =
0<
0;
bx :
b101 9
b10 8
07
b111 6
b0 )
b111 (
bx '
b101 &
b1010111 %
b0xxxxx $
b0xxxxxxx #
b11111111 "
bz !
$end
#1000
b111111 #
b111111 D
b111111 G
b111111 T
b1010 )
0'"
b0 F
b0 S
b0 '
b0 ?"
b0 >"
b0 ="
b0 <"
b0 ;"
b0 @"
0_
b0 L"
0H"
b0 I"
b0 K"
b0 J"
b0 $"
b0 C"
b0 M"
b0 $
b0 E
b0 H
b0 V
b0 `
b0 u
b0 8"
b0 x
b0 y
b0 z
b0 9"
07"
06"
b0 :"
b0 k
b0 :
1;
#2000
0;
#3000
1;
#4000
0;
#5000
1;
#6000
0;
#7000
1;
#8000
0;
#9000
1;
#10000
0;
#11000
b1 :
b1 k
b1 L"
1;
1<
#12000
0;
#13000
b10 L"
b10 k
b10 :
1;
#14000
0;
#15000
b11 :
b11 k
b11 L"
1;
#16000
0;
#17000
b100 L"
b100 k
b100 :
1;
#18000
0;
#19000
b101 :
b101 k
b101 L"
1;
#20000
0;
#21000
b110 L"
b110 k
b110 :
1;
#22000
0;
#23000
b111 :
b111 k
b111 L"
1;
#24000
0;
#25000
b1000 L"
b1000 k
b1000 :
1;
#26000
0;
#27000
b1001 :
b1001 k
b1001 L"
1;
#28000
0;
#29000
b1010 L"
b1010 k
b1010 :
1;
#30000
0;
#31000
b1011 :
b1011 k
b1011 L"
1;
#32000
0;
#33000
b1100 L"
b1100 k
b1100 :
1;
#34000
0;
#35000
b1101 :
b1101 k
b1101 L"
1;
#36000
0;
#37000
b1110 L"
b1110 k
b1110 :
1;
#38000
0;
#39000
b1111 :
b1111 k
b1111 L"
1;
#40000
0;
#41000
b10000 L"
b10000 k
b10000 :
1;
#42000
0;
#43000
b10001 :
b10001 k
b10001 L"
1;
#44000
0;
#45000
b10010 L"
b10010 k
b10010 :
1;
#46000
0;
#47000
b10011 :
b10011 k
b10011 L"
1;
#48000
0;
#49000
b10100 L"
b10100 k
b10100 :
1;
#50000
0;
#51000
b10101 :
b10101 k
b10101 L"
1;
#52000
0;
#53000
b10110 L"
b10110 k
b10110 :
1;
#54000
0;
#55000
b10111 :
b10111 k
b10111 L"
1;
#56000
0;
#57000
b11000 L"
b11000 k
b11000 :
1;
#58000
0;
#59000
b11001 :
b11001 k
b11001 L"
1;
#60000
0;
#61000
b11010 L"
b11010 k
b11010 :
1;
#62000
0;
#63000
b11011 :
b11011 k
b11011 L"
1;
#64000
0;
#65000
b11100 L"
b11100 k
b11100 :
1;
#66000
0;
#67000
b11101 :
b11101 k
b11101 L"
1;
#68000
0;
#69000
b11110 L"
b11110 k
b11110 :
1;
#70000
0;
#71000
b11111 :
b11111 k
b11111 L"
1;
#72000
0;
#73000
b100000 L"
b100000 k
b100000 :
1;
#74000
0;
#75000
b100001 :
b100001 k
b100001 L"
1;
#76000
0;
#77000
b100010 L"
b100010 k
b100010 :
1;
#78000
0;
#79000
b100011 :
b100011 k
b100011 L"
1;
#80000
0;
#81000
b100100 L"
b100100 k
b100100 :
1;
#82000
0;
#83000
b100101 :
b100101 k
b100101 L"
1;
#84000
0;
#85000
b100110 L"
b100110 k
b100110 :
1;
#86000
0;
#87000
b100111 :
b100111 k
b100111 L"
1;
#88000
0;
#89000
b101000 L"
b101000 k
b101000 :
1;
#90000
0;
#91000
b101001 :
b101001 k
b101001 L"
1;
#92000
0;
#93000
b101010 L"
b101010 k
b101010 :
1;
#94000
0;
#95000
b101011 :
b101011 k
b101011 L"
1;
#96000
0;
#97000
b101100 L"
b101100 k
b101100 :
1;
#98000
0;
#99000
b101101 :
b101101 k
b101101 L"
1;
#100000
0;
#101000
b101110 L"
b101110 k
b101110 :
1;
#102000
0;
#103000
b101111 :
b101111 k
b101111 L"
1;
#104000
0;
#105000
b110000 L"
b110000 k
b110000 :
1;
#106000
0;
#107000
b110001 :
b110001 k
b110001 L"
1;
#108000
0;
#109000
b110010 L"
b110010 k
b110010 :
1;
#110000
0;
#111000
b110011 :
b110011 k
b110011 L"
1;
#112000
0;
#113000
b110100 L"
b110100 k
b110100 :
1;
#114000
0;
#115000
b110101 :
b110101 k
b110101 L"
1;
#116000
0;
#117000
b110110 L"
b110110 k
b110110 :
1;
#118000
0;
#119000
b110111 :
b110111 k
b110111 L"
1;
#120000
0;
#121000
b111000 L"
b111000 k
b111000 :
1;
#122000
0;
#123000
b111001 :
b111001 k
b111001 L"
1;
#124000
0;
#125000
b111010 L"
b111010 k
b111010 :
1;
#126000
0;
#127000
b111011 :
b111011 k
b111011 L"
1;
#128000
0;
#129000
b111100 L"
b111100 k
b111100 :
1;
#130000
0;
#131000
b111101 :
b111101 k
b111101 L"
1;
#132000
0;
#133000
b111110 L"
b111110 k
b111110 :
1;
#134000
0;
#135000
b111111 :
b111111 k
b111111 L"
1;
#136000
0;
#137000
b1000000 L"
b1000000 k
b1000000 :
1;
#138000
0;
#139000
b1000001 :
b1000001 k
b1000001 L"
1;
#140000
0;
#141000
b1000010 L"
b1000010 k
b1000010 :
1;
#142000
0;
#143000
b1000011 :
b1000011 k
b1000011 L"
1;
#144000
0;
#145000
b1000100 L"
b1000100 k
b1000100 :
1;
#146000
0;
#147000
b1000101 :
b1000101 k
b1000101 L"
1;
#148000
0;
#149000
b1000110 L"
b1000110 k
b1000110 :
1;
#150000
0;
#151000
b1000111 :
b1000111 k
b1000111 L"
1;
#152000
0;
#153000
b1001000 L"
b1001000 k
b1001000 :
1;
#154000
0;
#155000
b1001001 :
b1001001 k
b1001001 L"
1;
#156000
0;
#157000
b1001010 L"
b1001010 k
b1001010 :
1;
#158000
0;
#159000
b1001011 :
b1001011 k
b1001011 L"
1;
#160000
0;
#161000
b1001100 L"
b1001100 k
b1001100 :
1;
#162000
0;
#163000
b1001101 :
b1001101 k
b1001101 L"
1;
#164000
0;
#165000
b1001110 L"
b1001110 k
b1001110 :
1;
#166000
0;
#167000
b1001111 :
b1001111 k
b1001111 L"
1;
#168000
0;
#169000
b1010000 L"
b1010000 k
b1010000 :
1;
#170000
0;
#171000
b1010001 :
b1010001 k
b1010001 L"
1;
#172000
0;
#173000
b1010010 L"
b1010010 k
b1010010 :
1;
#174000
0;
#175000
b1010011 :
b1010011 k
b1010011 L"
1;
#176000
0;
#177000
b1010100 L"
b1010100 k
b1010100 :
1;
#178000
0;
#179000
b1010101 :
b1010101 k
b1010101 L"
1;
#180000
0;
#181000
b1010110 L"
b1010110 k
b1010110 :
1;
#182000
0;
#183000
b1010111 :
b1010111 k
b1010111 L"
1;
#184000
0;
#185000
b1011000 L"
b1011000 k
b1011000 :
1;
#186000
0;
#187000
b1011001 :
b1011001 k
b1011001 L"
1;
#188000
0;
#189000
b1011010 L"
b1011010 k
b1011010 :
1;
#190000
0;
#191000
b1011011 :
b1011011 k
b1011011 L"
1;
#192000
0;
#193000
b1011100 L"
b1011100 k
b1011100 :
1;
#194000
0;
#195000
b1011101 :
b1011101 k
b1011101 L"
1;
#196000
0;
#197000
b1011110 L"
b1011110 k
b1011110 :
1;
#198000
0;
#199000
b1011111 :
b1011111 k
b1011111 L"
1;
#200000
0;
#201000
b1100000 L"
b1100000 k
b1100000 :
1;
#202000
0;
#203000
b1100001 :
b1100001 k
b1100001 L"
1;
#204000
0;
#205000
b1100010 L"
b1100010 k
b1100010 :
1;
#206000
0;
#207000
b1100011 :
b1100011 k
b1100011 L"
1;
#208000
0;
#209000
b1100100 L"
b1100100 k
b1100100 :
1;
#210000
0;
#211000
b1100101 :
b1100101 k
b1100101 L"
1;
#212000
0;
#213000
b1100110 L"
b1100110 k
b1100110 :
1;
#214000
0;
#215000
b1100111 :
b1100111 k
b1100111 L"
1;
#216000
0;
#217000
b1101000 L"
b1101000 k
b1101000 :
1;
#218000
0;
#219000
b1101001 :
b1101001 k
b1101001 L"
1;
#220000
0;
#221000
b1101010 L"
b1101010 k
b1101010 :
1;
#222000
0;
#223000
b1101011 :
b1101011 k
b1101011 L"
1;
#224000
0;
#225000
b1101100 L"
b1101100 k
b1101100 :
1;
#226000
0;
#227000
b1101101 :
b1101101 k
b1101101 L"
1;
#228000
0;
#229000
b1101110 L"
b1101110 k
b1101110 :
1;
#230000
0;
#231000
b1101111 :
b1101111 k
b1101111 L"
1;
#232000
0;
#233000
b1110000 L"
b1110000 k
b1110000 :
1;
#234000
0;
#235000
b1110001 :
b1110001 k
b1110001 L"
1;
#236000
0;
#237000
b1110010 L"
b1110010 k
b1110010 :
1;
#238000
0;
#239000
b1110011 :
b1110011 k
b1110011 L"
1;
#240000
0;
#241000
b1110100 L"
b1110100 k
b1110100 :
1;
#242000
0;
#243000
b1110101 :
b1110101 k
b1110101 L"
1;
#244000
0;
#245000
b1110110 L"
b1110110 k
b1110110 :
1;
#246000
0;
#247000
b1110111 :
b1110111 k
b1110111 L"
1;
#248000
0;
#249000
b1111000 L"
b1111000 k
b1111000 :
1;
#250000
0;
#251000
b1111001 :
b1111001 k
b1111001 L"
1;
#252000
0;
#253000
b1111010 L"
b1111010 k
b1111010 :
1;
#254000
0;
#255000
b1111011 :
b1111011 k
b1111011 L"
1;
#256000
0;
#257000
b1111100 L"
b1111100 k
b1111100 :
1;
#258000
0;
#259000
b1111101 :
b1111101 k
b1111101 L"
1;
#260000
0;
#261000
b1111110 L"
b1111110 k
b1111110 :
1;
#262000
0;
#263000
b1111111 :
b1111111 k
b1111111 L"
1;
#264000
0;
#265000
b10000000 L"
b10000000 k
b10000000 :
1;
#266000
0;
#267000
b10000001 :
b10000001 k
b10000001 L"
1;
#268000
0;
#269000
b10000010 L"
b10000010 k
b10000010 :
1;
#270000
0;
#271000
b10000011 :
b10000011 k
b10000011 L"
1;
#272000
0;
#273000
b10000100 L"
b10000100 k
b10000100 :
1;
#274000
0;
#275000
b10000101 :
b10000101 k
b10000101 L"
1;
#276000
0;
#277000
b10000110 L"
b10000110 k
b10000110 :
1;
#278000
0;
#279000
b10000111 :
b10000111 k
b10000111 L"
1;
#280000
0;
#281000
b10001000 L"
b10001000 k
b10001000 :
1;
#282000
0;
#283000
b10001001 :
b10001001 k
b10001001 L"
1;
#284000
0;
#285000
b10001010 L"
b10001010 k
b10001010 :
1;
#286000
0;
#287000
b10001011 :
b10001011 k
b10001011 L"
1;
#288000
0;
#289000
b10001100 L"
b10001100 k
b10001100 :
1;
#290000
0;
#291000
b10001101 :
b10001101 k
b10001101 L"
1;
#292000
0;
#293000
b10001110 L"
b10001110 k
b10001110 :
1;
#294000
0;
#295000
b10001111 :
b10001111 k
b10001111 L"
1;
#296000
0;
#297000
b10010000 L"
b10010000 k
b10010000 :
1;
#298000
0;
#299000
b10010001 :
b10010001 k
b10010001 L"
1;
#300000
0;
#301000
b10010010 L"
b10010010 k
b10010010 :
1;
#302000
0;
#303000
b10010011 :
b10010011 k
b10010011 L"
1;
#304000
0;
#305000
b10010100 L"
b10010100 k
b10010100 :
1;
#306000
0;
#307000
b10010101 :
b10010101 k
b10010101 L"
1;
#308000
0;
#309000
b10010110 L"
b10010110 k
b10010110 :
1;
#310000
0;
#311000
b10010111 :
b10010111 k
b10010111 L"
1;
#312000
0;
#313000
b10011000 L"
b10011000 k
b10011000 :
1;
#314000
0;
#315000
b10011001 :
b10011001 k
b10011001 L"
1;
#316000
0;
#317000
b10011010 L"
b10011010 k
b10011010 :
1;
#318000
0;
#319000
b10011011 :
b10011011 k
b10011011 L"
1;
#320000
0;
#321000
b10011100 L"
b10011100 k
b10011100 :
1;
#322000
0;
#323000
b10011101 :
b10011101 k
b10011101 L"
1;
#324000
0;
#325000
b10011110 L"
b10011110 k
b10011110 :
1;
#326000
0;
#327000
b10011111 :
b10011111 k
b10011111 L"
1;
#328000
0;
#329000
b10100000 L"
b10100000 k
b10100000 :
1;
#330000
0;
#331000
b10100001 :
b10100001 k
b10100001 L"
1;
#332000
0;
#333000
b10100010 L"
b10100010 k
b10100010 :
1;
#334000
0;
#335000
b10100011 :
b10100011 k
b10100011 L"
1;
#336000
0;
#337000
b10100100 L"
b10100100 k
b10100100 :
1;
#338000
0;
#339000
b10100101 :
b10100101 k
b10100101 L"
1;
#340000
0;
#341000
b10100110 L"
b10100110 k
b10100110 :
1;
#342000
0;
#343000
b10100111 :
b10100111 k
b10100111 L"
1;
#344000
0;
#345000
b10101000 L"
b10101000 k
b10101000 :
1;
#346000
0;
#347000
b10101001 :
b10101001 k
b10101001 L"
1;
#348000
0;
#349000
b10101010 L"
b10101010 k
b10101010 :
1;
#350000
0;
#351000
b10101011 :
b10101011 k
b10101011 L"
1;
#352000
0;
#353000
b10101100 L"
b10101100 k
b10101100 :
1;
#354000
0;
#355000
b10101101 :
b10101101 k
b10101101 L"
1;
#356000
0;
#357000
b10101110 L"
b10101110 k
b10101110 :
1;
#358000
0;
#359000
b10101111 :
b10101111 k
b10101111 L"
1;
#360000
0;
#361000
b10110000 L"
b10110000 k
b10110000 :
1;
#362000
0;
#363000
b10110001 :
b10110001 k
b10110001 L"
1;
#364000
0;
#365000
b10110010 L"
b10110010 k
b10110010 :
1;
#366000
0;
#367000
b10110011 :
b10110011 k
b10110011 L"
1;
#368000
0;
#369000
b10110100 L"
b10110100 k
b10110100 :
1;
#370000
0;
#371000
b10110101 :
b10110101 k
b10110101 L"
1;
#372000
0;
#373000
b10110110 L"
b10110110 k
b10110110 :
1;
#374000
0;
#375000
b10110111 :
b10110111 k
b10110111 L"
1;
#376000
0;
#377000
b10111000 L"
b10111000 k
b10111000 :
1;
#378000
0;
#379000
b10111001 :
b10111001 k
b10111001 L"
1;
#380000
0;
#381000
b10111010 L"
b10111010 k
b10111010 :
1;
#382000
0;
#383000
b10111011 :
b10111011 k
b10111011 L"
1;
#384000
0;
#385000
b10111100 L"
b10111100 k
b10111100 :
1;
#386000
0;
#387000
b10111101 :
b10111101 k
b10111101 L"
1;
#388000
0;
#389000
b10111110 L"
b10111110 k
b10111110 :
1;
#390000
0;
#391000
b10111111 :
b10111111 k
b10111111 L"
1;
#392000
0;
#393000
b11000000 L"
b11000000 k
b11000000 :
1;
#394000
0;
#395000
b11000001 :
b11000001 k
b11000001 L"
1;
#396000
0;
#397000
b11000010 L"
b11000010 k
b11000010 :
1;
#398000
0;
#399000
b11000011 :
b11000011 k
b11000011 L"
1;
#400000
0;
#401000
b11000100 L"
b11000100 k
b11000100 :
1;
#402000
0;
#403000
b11000101 :
b11000101 k
b11000101 L"
1;
#404000
0;
#405000
b11000110 L"
b11000110 k
b11000110 :
1;
#406000
0;
#407000
b11000111 :
b11000111 k
b11000111 L"
1;
#408000
0;
#409000
b11001000 L"
b11001000 k
b11001000 :
1;
#410000
0;
#411000
b11001001 :
b11001001 k
b11001001 L"
1;
#412000
0;
#413000
b11001010 L"
b11001010 k
b11001010 :
1;
#414000
0;
#415000
b11001011 :
b11001011 k
b11001011 L"
1;
#416000
0;
#417000
b11001100 L"
b11001100 k
b11001100 :
1;
#418000
0;
#419000
b11001101 :
b11001101 k
b11001101 L"
1;
#420000
0;
#421000
b11001110 L"
b11001110 k
b11001110 :
1;
#422000
0;
#423000
b11001111 :
b11001111 k
b11001111 L"
1;
#424000
0;
#425000
b11010000 L"
b11010000 k
b11010000 :
1;
#426000
0;
#427000
b11010001 :
b11010001 k
b11010001 L"
1;
#428000
0;
#429000
b11010010 L"
b11010010 k
b11010010 :
1;
#430000
0;
#431000
b11010011 :
b11010011 k
b11010011 L"
1;
#432000
0;
#433000
b11010100 L"
b11010100 k
b11010100 :
1;
#434000
0;
#435000
b11010101 :
b11010101 k
b11010101 L"
1;
#436000
0;
#437000
b11010110 L"
b11010110 k
b11010110 :
1;
#438000
0;
#439000
b11010111 :
b11010111 k
b11010111 L"
1;
#440000
0;
#441000
b11011000 L"
b11011000 k
b11011000 :
1;
#442000
0;
#443000
b11011001 :
b11011001 k
b11011001 L"
1;
#444000
0;
#445000
b11011010 L"
b11011010 k
b11011010 :
1;
#446000
0;
#447000
b11011011 :
b11011011 k
b11011011 L"
1;
#448000
0;
#449000
b11011100 L"
b11011100 k
b11011100 :
1;
#450000
0;
#451000
b11011101 :
b11011101 k
b11011101 L"
1;
#452000
0;
#453000
b11011110 L"
b11011110 k
b11011110 :
1;
#454000
0;
#455000
b11011111 :
b11011111 k
b11011111 L"
1;
#456000
0;
#457000
b11100000 L"
b11100000 k
b11100000 :
1;
#458000
0;
#459000
b11100001 :
b11100001 k
b11100001 L"
1;
#460000
0;
#461000
b11100010 L"
b11100010 k
b11100010 :
1;
#462000
0;
#463000
b11100011 :
b11100011 k
b11100011 L"
1;
#464000
0;
#465000
b11100100 L"
b11100100 k
b11100100 :
1;
#466000
0;
#467000
b11100101 :
b11100101 k
b11100101 L"
1;
#468000
0;
#469000
b11100110 L"
b11100110 k
b11100110 :
1;
#470000
0;
#471000
b11100111 :
b11100111 k
b11100111 L"
1;
#472000
0;
#473000
b11101000 L"
b11101000 k
b11101000 :
1;
#474000
0;
#475000
b11101001 :
b11101001 k
b11101001 L"
1;
#476000
0;
#477000
b11101010 L"
b11101010 k
b11101010 :
1;
#478000
0;
#479000
b11101011 :
b11101011 k
b11101011 L"
1;
#480000
0;
#481000
b11101100 L"
b11101100 k
b11101100 :
1;
#482000
0;
#483000
b11101101 :
b11101101 k
b11101101 L"
1;
#484000
0;
#485000
b11101110 L"
b11101110 k
b11101110 :
1;
#486000
0;
#487000
b11101111 :
b11101111 k
b11101111 L"
1;
#488000
0;
#489000
b11110000 L"
b11110000 k
b11110000 :
1;
#490000
0;
#491000
b11110001 :
b11110001 k
b11110001 L"
1;
#492000
0;
#493000
b11110010 L"
b11110010 k
b11110010 :
1;
#494000
0;
#495000
b11110011 :
b11110011 k
b11110011 L"
1;
#496000
0;
#497000
b11110100 L"
b11110100 k
b11110100 :
1;
#498000
0;
#499000
b11110101 :
b11110101 k
b11110101 L"
1;
#500000
0;
#501000
b11110110 L"
b11110110 k
b11110110 :
1;
#502000
0;
#503000
b11110111 :
b11110111 k
b11110111 L"
1;
#504000
0;
#505000
b11111000 L"
b11111000 k
b11111000 :
1;
#506000
0;
#507000
b11111001 :
b11111001 k
b11111001 L"
1;
#508000
0;
#509000
b11111010 L"
b11111010 k
b11111010 :
1;
#510000
0;
#511000
b11111011 :
b11111011 k
b11111011 L"
1;
#512000
0;
#513000
b11111100 L"
b11111100 k
b11111100 :
1;
#514000
0;
#515000
b11111101 :
b11111101 k
b11111101 L"
1;
#516000
0;
#517000
b11111110 L"
b11111110 k
b11111110 :
1;
#518000
0;
#519000
b11111111 :
b11111111 k
b11111111 L"
1;
#520000
0;
#521000
b100000000 L"
b100000000 k
b100000000 :
1;
#522000
0;
#523000
b100000001 :
b100000001 k
b100000001 L"
1;
#524000
0;
#525000
b100000010 L"
b100000010 k
b100000010 :
1;
#526000
0;
#527000
b100000011 :
b100000011 k
b100000011 L"
1;
#528000
0;
#529000
b100000100 L"
b100000100 k
b100000100 :
1;
#530000
0;
#531000
b100000101 :
b100000101 k
b100000101 L"
1;
#532000
0;
#533000
b100000110 L"
b100000110 k
b100000110 :
1;
#534000
0;
#535000
b100000111 :
b100000111 k
b100000111 L"
1;
#536000
0;
#537000
b100001000 L"
b100001000 k
b100001000 :
1;
#538000
0;
#539000
b100001001 :
b100001001 k
b100001001 L"
1;
#540000
0;
#541000
b100001010 L"
b100001010 k
b100001010 :
1;
#542000
0;
#543000
b100001011 :
b100001011 k
b100001011 L"
1;
#544000
0;
#545000
b100001100 L"
b100001100 k
b100001100 :
1;
#546000
0;
#547000
b100001101 :
b100001101 k
b100001101 L"
1;
#548000
0;
#549000
b100001110 L"
b100001110 k
b100001110 :
1;
#550000
0;
#551000
b100001111 :
b100001111 k
b100001111 L"
1;
#552000
0;
#553000
b100010000 L"
b100010000 k
b100010000 :
1;
#554000
0;
#555000
b100010001 :
b100010001 k
b100010001 L"
1;
#556000
0;
#557000
b100010010 L"
b100010010 k
b100010010 :
1;
#558000
0;
#559000
b100010011 :
b100010011 k
b100010011 L"
1;
#560000
0;
#561000
b100010100 L"
b100010100 k
b100010100 :
1;
#562000
0;
#563000
b100010101 :
b100010101 k
b100010101 L"
1;
#564000
0;
#565000
b100010110 L"
b100010110 k
b100010110 :
1;
#566000
0;
#567000
b100010111 :
b100010111 k
b100010111 L"
1;
#568000
0;
#569000
b100011000 L"
b100011000 k
b100011000 :
1;
#570000
0;
#571000
b100011001 :
b100011001 k
b100011001 L"
1;
#572000
0;
#573000
b100011010 L"
b100011010 k
b100011010 :
1;
#574000
0;
#575000
b100011011 :
b100011011 k
b100011011 L"
1;
#576000
0;
#577000
b100011100 L"
b100011100 k
b100011100 :
1;
#578000
0;
#579000
b100011101 :
b100011101 k
b100011101 L"
1;
#580000
0;
#581000
b100011110 L"
b100011110 k
b100011110 :
1;
#582000
0;
#583000
b100011111 :
b100011111 k
b100011111 L"
1;
#584000
0;
